Experiment,Datafile,Call,Time,Results
naive,movie_100,winnow(c1_pref_movie),74,22
naive,movie_100,winnow(c2_pref_movie),41,71
naive,movie_100,winnow(c3_pref_movie),24,8
naive,movie_100,winnow(conj_pref_movie),50,83
naive,movie_100,winnow(prior_pref_movie),46,22
naive,movie_100,winnow(director_pref_movie),161,11