Experiment,Datafile,Call,Time,Results
optim,movie_10000,winnow_c1,21021,110
optim,movie_10000,winnow_c2,78088,704
optim,movie_10000,winnow_c3,39625,464
optim,movie_10000,winnow_conj,204693,1027
optim,movie_10000,winnow_prior,35675,27
optim,movie_10000,winnow_director,165851,15